Basic Statistics U2 Concerts – U2 Data Analytics
…
Most played songs - source u2gigs.com - October 2024.

I took a closer look at the song Pride to see where the difference of 1 time played is between my data and the data at https://www.u2gigs.com/Pride_(In_the_Name_of_Love)-s40.html. I copied all the times the song was played from that page and pasted in Excel. With the code below I obtained the list from my data and compared that side by side in Excel.

# Pride - number of times played
pride_data <- subset(u2data, song_title == 'Pride (In the Name of Love)', select = c("date","city","tour", "song_title", "showID"))
#write.csv(pride_data, "pride_data.csv")

I discovered that the issue in my data is at the ZOO TV show on March 31, 1992 in Rosemont: https://www.u2gigs.com/show235.html. Pride was played one time at that show but appears in my data as it was played 2 times during that show:

# Rosemont show 1992 set list
rosemont_data <- subset(u2data, showID == 235, select = c("date", "city", "song_position","song_title","snippet", "encore"))
print(rosemont_data)

# A tibble: 46 × 6
   date       city     song_position song_title                   snippet encore
   <date>     <chr>            <dbl> <chr>                        <lgl>   <lgl> 
 1 1992-03-31 Rosemont             1 Zoo Station                  FALSE   FALSE 
 2 1992-03-31 Rosemont             2 The Fly                      FALSE   FALSE 
 3 1992-03-31 Rosemont             3 Even Better Than The Real T… FALSE   FALSE 
 4 1992-03-31 Rosemont             4 Mysterious Ways              FALSE   FALSE 
 5 1992-03-31 Rosemont             4 Love To Love You Baby        TRUE    FALSE 
 6 1992-03-31 Rosemont             5 One                          FALSE   FALSE 
 7 1992-03-31 Rosemont             6 Until the End of the World   FALSE   FALSE 
 8 1992-03-31 Rosemont             7 Who's Gonna Ride Your Wild … FALSE   FALSE 
 9 1992-03-31 Rosemont             8 Tryin' to Throw Your Arms A… FALSE   FALSE 
10 1992-03-31 Rosemont             8 Love And Affection           TRUE    FALSE 
# ℹ 36 more rows

With this we can see that there is duplicated data for this show in my data. I went back to my original scraped files and indeed I saw that the duplication happened where the scraping process had been interrupted and later restarted manually. Let’s check to what extent there are duplicated rows in my data:

# show duplicate rows 
duplicated_rows <- u2data[duplicated(u2data), ]
print(duplicated_rows, n=max())

# A tibble: 24 × 15
   showID tour  leg   date       venue city  state country song_position snippet
    <dbl> <chr> <chr> <date>     <chr> <chr> <chr> <chr>           <dbl> <lgl>  
 1    235 U2 Z… ZOO … 1992-03-31 Rose… Rose… Illi… USA                 1 FALSE  
 2    235 U2 Z… ZOO … 1992-03-31 Rose… Rose… Illi… USA                 2 FALSE  
 3    235 U2 Z… ZOO … 1992-03-31 Rose… Rose… Illi… USA                 3 FALSE  
 4    235 U2 Z… ZOO … 1992-03-31 Rose… Rose… Illi… USA                 4 FALSE  
 5    235 U2 Z… ZOO … 1992-03-31 Rose… Rose… Illi… USA                 4 TRUE   
 6    235 U2 Z… ZOO … 1992-03-31 Rose… Rose… Illi… USA                 5 FALSE  
 7    235 U2 Z… ZOO … 1992-03-31 Rose… Rose… Illi… USA                 6 FALSE  
 8    235 U2 Z… ZOO … 1992-03-31 Rose… Rose… Illi… USA                 7 FALSE  
 9    235 U2 Z… ZOO … 1992-03-31 Rose… Rose… Illi… USA                 8 FALSE  
10    235 U2 Z… ZOO … 1992-03-31 Rose… Rose… Illi… USA                 8 TRUE   
# ℹ 14 more rows
# ℹ 5 more variables: encore <lgl>, song_title <chr>, show_url <chr>,
#   song_url <chr>, song_lyrics <chr>
…
Top played songs - u2gigs.com - October 2024.

Let’s check Where The Streets Have No Name. In the u2gigs.com it has a total play count of 976, all regular performances, no snippets. In my data it states 974 regular performances and 2 times as a snippet.

WTSHNN_regular_play_count <- subset(u2data, song_title == 'Where the Streets Have No Name' & snippet == FALSE, select = c("showID", "date", "city", "song_position","song_title","snippet", "encore"))
print(WTSHNN_regular_play_count)

# A tibble: 974 × 7
   showID date       city           song_position song_title      snippet encore
    <dbl> <date>     <chr>                  <dbl> <chr>           <lgl>   <lgl> 
 1      8 1990-01-05 Rotterdam                  5 Where the Stre… FALSE   FALSE 
 2      9 1990-01-06 Rotterdam                  1 Where the Stre… FALSE   FALSE 
 3     11 1990-01-09 Rotterdam                  1 Where the Stre… FALSE   FALSE 
 4     12 1990-01-10 Rotterdam                  6 Where the Stre… FALSE   FALSE 
 5     29 1998-01-27 Rio de Janeiro            16 Where the Stre… FALSE   FALSE 
 6     37 1998-01-30 Sao Paulo                 15 Where the Stre… FALSE   FALSE 
 7     42 1998-01-31 Sao Paulo                 15 Where the Stre… FALSE   FALSE 
 8     55 1998-02-05 Buenos Aires              15 Where the Stre… FALSE   FALSE 
 9     58 1998-02-06 Buenos Aires              15 Where the Stre… FALSE   FALSE 
10     59 1998-02-07 Buenos Aires              16 Where the Stre… FALSE   FALSE 
# ℹ 964 more rows
…
