Initial Data Exploration – U2 Data Analytics
…
Fixing incorrect city and venue names

As mentioned, the number of shows in some cities did not fully match the number listed at u2gigs.com. I explored this by obtaining a list of all cities listed at u2gigs.com (https://www.u2gigs.com/all-locations-city.html), and by getting a list of unique city names in my data:

# get and print unique cities
print(unique(u2data[,c('city')]))

# A tibble: 410 × 1
   city      
   <chr>     
 1 Dublin    
 2 Glasgow   
 3 Rotterdam 
 4 Amsterdam 
 5 New York  
 6 Washington
 7 Belfast   
 8 Drammen   
 9 Edinburgh 
10 Stockholm 
# ℹ 400 more rows
…
enis

losters

rent

I then retrieved more info about these entries in my data, including the showID so that I could manually check these shows at u2gigs.com.

# check cities not listed at u2gigs.com

extra_cities <- subset(u2data, city == 'arne' | city == 'elin' | city == 'enis' | city == 'losters' | city == 'rent', select = c("showID", "country", "city", "date","venue"))
print(extra_cities)

# A tibble: 247 × 5
   showID country city  date       venue                       
    <dbl> <chr>   <chr> <date>     <chr>                       
 1    978 France  arne  1980-12-04 Pavillon Baltard - Nogent-su
 2    978 France  arne  1980-12-04 Pavillon Baltard - Nogent-su
 3    978 France  arne  1980-12-04 Pavillon Baltard - Nogent-su
 4    978 France  arne  1980-12-04 Pavillon Baltard - Nogent-su
 5    978 France  arne  1980-12-04 Pavillon Baltard - Nogent-su
 6    978 France  arne  1980-12-04 Pavillon Baltard - Nogent-su
 7    978 France  arne  1980-12-04 Pavillon Baltard - Nogent-su
 8    978 France  arne  1980-12-04 Pavillon Baltard - Nogent-su
 9    978 France  arne  1980-12-04 Pavillon Baltard - Nogent-su
10    978 France  arne  1980-12-04 Pavillon Baltard - Nogent-su
# ℹ 237 more rows
…
